<?xml version="1.0" encoding="UTF-8"?>
<!-- Created with Inkscape (http://www.inkscape.org/) -->
<svg width="310mm" height="75mm" version="1.1" viewBox="0 0 1171.7 283.46" xmlns="http://www.w3.org/2000/svg">
 <g transform="translate(18.898)" fill="#f10000" fill-opacity=".69758">
  <path d="m128.68 19.349 39.765 80.572 88.917 12.92-64.341 62.717 15.189 88.557-79.529-41.811-79.529 41.811 15.189-88.557-64.341-62.717 88.917-12.92z" stroke-width="2"/>
  <path d="m1133.9 141.73a136.65 136.65 0 0 1-136.65 136.65 136.65 136.65 0 0 1-136.65-136.65 136.65 136.65 0 0 1 136.65-136.65 136.65 136.65 0 0 1 136.65 136.65z" stroke-width="2.3429"/>
  <g stroke-width="2px">
   <path d="m128.68 19.35 39.765 80.572 88.916 12.92s-16.093 15.687-32.182 31.37c-16.081 15.675-32.158 31.346-32.158 31.346s6.893 40.195 11.392 66.425c2.179 12.704 3.796 22.133 3.796 22.133l-79.529-41.811-79.529 41.811s1.617-9.429 3.796-22.133c4.498-26.23 11.392-66.425 11.392-66.425s-16.077-15.671-32.158-31.346c-16.089-15.683-32.182-31.37-32.182-31.37l88.916-12.92z"/>
   <path d="m296.21 39.747c0 5.002 31.525 76.772 28.79 80.529-2.797 3.844 67.329 17.546 62.712 19.046-2.218 0.721-17.995 14.182-33.86 27.251-15.813 13.063-31.583 25.74-33.835 25.009-3.388-1.101-0.758 30.504 0.426 49.797 0.967 9.738 1.539 16.686 0.842 15.727-2.809-3.867-70.624-43.39-70.624-48.23s-64.734 25.322-61.925 21.455c0.697-0.959 2.82-9.725 5.484-21.16 6.315-24.425 15.175-59.81 18.562-60.911 2.252-0.731-8.773-14.174-19.762-27.236-10.95-13.069-21.995-25.753-19.777-25.032 4.618 1.499 82.685-6.332 85.483-2.489 2.734 3.758 37.484-58.759 37.484-53.756z"/>
   <path d="m463.74 60.144c0 10.005 23.284 72.972 17.815 80.487-5.5949 7.688 45.742 22.172 36.506 25.172-4.435 1.44-19.897 12.677-35.538 23.132-15.544 10.45-31.007 20.133-35.511 18.67-6.775-2.201-8.409 20.814-10.541 33.17-0.245 6.772-0.717 11.239-2.11 9.321-5.62-7.733-61.72-44.969-61.72-54.649s-49.939 8.832-44.32 1.099c1.394-1.918 4.022-10.021 7.172-20.188 8.131-22.618 18.956-53.195 25.732-55.396 4.503-1.463-1.47-12.676-7.367-23.126-5.811-10.456-11.807-20.135-7.372-18.695 9.235 3 76.455 0.257 82.049 7.944 5.469 7.516 35.205-36.947 35.205-26.941z"/>
   <path d="m631.27 80.541c0 15.008 15.043 69.173 6.8402 80.445-8.3917 11.532 24.154 26.798 10.301 31.297-6.6524 2.161-21.799 11.172-37.216 19.014-15.276 7.837-30.432 14.525-37.187 12.331-10.163-3.302-16.061 11.124-21.508 16.543-1.457 3.805-2.973 5.793-5.0635 2.916-8.4286-11.6-52.815-46.549-52.815-61.068v-1e-3c0-14.519-35.143-7.657-26.715-19.256 2.091-2.877 5.224-10.318 8.86-19.217 9.9462-20.812 22.738-46.58 32.901-49.882 6.7554-2.194 5.8339-11.178 5.0288-19.015-0.672-7.842-1.6186-14.517 5.0337-12.357 13.853 4.5 70.224 6.845 78.615 18.376 8.2033 11.273 32.925-15.135 32.925-0.126z"/>
   <path d="m798.8 100.94c0 20.011 6.803 65.373-4.135 80.403-11.189 15.376 2.567 31.423-15.904 37.423-8.869 2.881-23.7 9.667-38.894 14.894-15.008 5.225-29.856 8.919-38.863 5.993-13.551-4.402-23.712 1.435-32.476-0.085-2.6689 0.84-5.2294 0.347-8.0167-3.489-11.238-15.466-43.91-48.128-43.91-67.487v-1e-3c1e-4 -19.359-20.348-24.146-9.1094-39.612 2.7872-3.836 6.4258-10.614 10.547-18.244 11.762-19.007 26.52-39.966 40.07-44.368 9.0073-2.926 13.138-9.68 17.425-14.905 4.4671-5.228 8.5696-8.9 17.439-6.019 18.471 5.999 63.993 13.433 75.182 28.808 10.938 15.031 30.645 6.678 30.645 26.689z"/>
   <path d="m966.33 121.33c0 25.014-1.437 61.573-15.109 80.361-13.986 19.22-19.02 36.049-42.109 43.548-11.087 3.601-25.603 8.162-40.572 10.776-14.74 2.612-29.281 3.311-40.54-0.346-16.939-5.503-31.364-8.255-43.442-16.712-3.881-2.127-7.486-5.1-10.97-9.895-14.048-19.333-35.006-49.706-35.006-73.906 1e-3 -24.2-5.552-40.636 8.496-59.969 3.484-4.795 7.628-10.911 12.235-17.272 13.578-17.2 30.301-33.351 47.24-38.853 11.259-3.658 20.441-8.183 29.82-10.795 9.606-2.614 18.757-3.282 29.845 0.319 23.088 7.499 57.761 20.021 71.747 39.24 13.673 18.788 28.365 28.49 28.365 53.504z"/>
   <path d="m1133.9 141.73c0 30.016-9.678 57.773-26.084 80.318-16.784 23.064-40.608 40.674-68.315 49.674-13.304 4.321-27.504 6.656-42.25 6.656-14.471 0-28.705-2.295-42.216-6.684-20.326-6.603-39.015-17.945-54.409-33.339-5.093-5.093-9.742-10.546-13.923-16.3-16.857-23.2-26.101-51.286-26.101-80.325v-1e-3c1e-3 -29.039 9.244-57.125 26.101-80.325 4.181-5.754 8.83-11.207 13.923-16.3 15.394-15.394 34.083-26.736 54.409-33.339 13.511-4.389 27.745-6.684 42.216-6.684 14.745 0 28.945 2.335 42.25 6.657 27.706 8.998 51.53 26.609 68.314 49.672 16.406 22.546 26.085 50.302 26.085 80.32z"/>
  </g>
 </g>
</svg>
