<?xml version="1.0" encoding="UTF-8" standalone="no"?>
<svg xmlns:rdf="http://www.w3.org/1999/02/22-rdf-syntax-ns#" xmlns="http://www.w3.org/2000/svg" version="1.1" xmlns:cc="http://creativecommons.org/ns#" viewBox="0 0 16 16" xmlns:dc="http://purl.org/dc/elements/1.1/">
<metadata>
<rdf:RDF>
<cc:Work rdf:about="">
<dc:format>image/svg+xml</dc:format>
<dc:type rdf:resource="http://purl.org/dc/dcmitype/StillImage"/>
</cc:Work>
</rdf:RDF>
</metadata>
<g stroke-linecap="round" fill="none">
<path stroke-opacity=".7" stroke="#da0000" d="m2 7c7 0-4 6.5 7 6.5"/>
<path stroke="#5a5a5a" d="m2 2 12 12"/>
<path stroke-opacity=".7" stroke="#da0000" d="m7 2c0 7 6.5-4 6.5 7"/>
</g>
</svg>
