<?xml version="1.0" encoding="UTF-8" standalone="no"?>
<svg xmlns:rdf="http://www.w3.org/1999/02/22-rdf-syntax-ns#" xmlns="http://www.w3.org/2000/svg" version="1.1" xmlns:cc="http://creativecommons.org/ns#" viewBox="0 0 16 16.301221" xmlns:dc="http://purl.org/dc/elements/1.1/">
<metadata>
<rdf:RDF>
<cc:Work rdf:about="">
<dc:format>image/svg+xml</dc:format>
<dc:type rdf:resource="http://purl.org/dc/dcmitype/StillImage"/>
</cc:Work>
</rdf:RDF>
</metadata>
<g transform="translate(-764,-29.773572)">
<rect style="color:#000000" height="16" width="16" y="30.00114" x="764" stroke-width=".1" fill="none"/>
<rect style="color:#000000" height="16" width="16" y="30.00171" x="764" stroke-width=".1" fill="none"/>
<path stroke-linejoin="round" style="color:#000000" d="m765 45 14-14" stroke="#646464" stroke-linecap="round" stroke-miterlimit="0" stroke-width="1.0000002" fill="none"/>
<circle style="color:#000000" stroke-width="1.1428572" fill-rule="evenodd" fill-opacity=".3921569" stroke-linecap="round" transform="matrix(.8749999 0 0 .875 112.6876 9.126711)" stroke="#008000" cy="33" cx="753.5" r="2" fill="#6464ff"/>
<g stroke="#c00000" stroke-width=".6666667px" transform="matrix(1.5,0,0,1.5,-383.9324,-21.06763)" fill="#c00000">
<path style="color:#000000" d="m766.7737 40.68077 1 4"/>
<path style="color:#000000" d="m767.9558 39.58974 1 4"/>
</g>
<g stroke="#c00000" stroke-width=".6666667px" transform="matrix(1.5,0,0,1.5,-375.4835,-29.48977)" fill="#c00000">
<path style="color:#000000" d="m766.7737 40.68077 1 4"/>
<path style="color:#000000" d="m767.9558 39.58974 1 4"/>
</g>
</g>
</svg>
