<?xml version="1.0" encoding="UTF-8" standalone="no"?>
<svg xmlns:rdf="http://www.w3.org/1999/02/22-rdf-syntax-ns#" xmlns="http://www.w3.org/2000/svg" version="1.1" xmlns:cc="http://creativecommons.org/ns#" xmlns:xlink="http://www.w3.org/1999/xlink" viewBox="0 0 15.997146 16.015956" xmlns:dc="http://purl.org/dc/elements/1.1/">
<metadata>
<rdf:RDF>
<cc:Work rdf:about="">
<dc:format>image/svg+xml</dc:format>
<dc:type rdf:resource="http://purl.org/dc/dcmitype/StillImage"/>
</cc:Work>
</rdf:RDF>
</metadata>
<defs>
<linearGradient id="b">
<stop stop-color="#fffdf8" offset="0"/>
<stop stop-color="#cdccc7" offset="1"/>
</linearGradient>
<linearGradient id="a">
<stop stop-color="#fff" offset="0"/>
<stop stop-color="#98b6d3" offset="1"/>
</linearGradient>
<linearGradient id="d" y2="313.3821" xlink:href="#b" gradientUnits="userSpaceOnUse" x2="124.8045" gradientTransform="matrix(1 0 0 .991519 0 2.569281)" y1="306.5469" x1="118.5487"/>
<linearGradient id="f" y2="46.33905" xlink:href="#a" gradientUnits="userSpaceOnUse" x2="415.1663" gradientTransform="matrix(.666914 0 0 .896427 -159.6137 266.4372)" y1="46.33899" x1="404.6787"/>
<linearGradient id="e" y2="46.33901" xlink:href="#a" gradientUnits="userSpaceOnUse" x2="415.2005" gradientTransform="matrix(.868799 0 0 .896064 -239.3931 260.4497)" y1="46.33899" x1="404.6787"/>
<linearGradient id="c" y2="316" xlink:href="#b" gradientUnits="userSpaceOnUse" x2="119.9323" y1="311.0052" x1="114.0927"/>
</defs>
<g stroke-linejoin="round" stroke="#000" stroke-linecap="round" transform="translate(-110.0053,-299.98401)" fill-rule="evenodd">
<rect style="color:#000000" height="10.03091" width="13.00704" y="303.4572" x="112.4954" stroke-width=".9999999" fill="url(#d)"/>
<rect style="color:#000000" height="2.976774" width="13.00705" y="300.484" x="112.4954" stroke-width=".9999995" fill="url(#e)"/>
<rect style="color:#000000" height="6.170955" width="9.983619" y="309.329" x="110.5057" stroke-width=".9999998" fill="url(#c)"/>
<rect style="color:#000000" height="2.977982" width="9.984552" y="306.4879" x="110.5053" stroke-width=".9999997" fill="url(#f)"/>
</g>
</svg>
